settings:
sequential algorithm	N=8
there are 92 solutions
00000001
00010000
10000000
00100000
00000100
01000000
00000010
00001000

00000001
00100000
10000000
00000100
01000000
00001000
00000010
00010000

00000001
01000000
00001000
00100000
10000000
00000010
00010000
00000100

00000001
01000000
00010000
10000000
00000010
00001000
00100000
00000100

00000010
00001000
00100000
10000000
00000100
00000001
01000000
00010000

00000010
00010000
01000000
00000001
00000100
10000000
00100000
00001000

00000010
00010000
01000000
00001000
00000001
10000000
00100000
00000100

00000010
00100000
00000001
01000000
00001000
10000000
00000100
00010000

00000010
00100000
10000000
00000100
00000001
00001000
01000000
00010000

00000010
01000000
00000100
00100000
10000000
00010000
00000001
00001000

00000010
01000000
00010000
10000000
00000001
00001000
00100000
00000100

00000010
10000000
00100000
00000001
00000100
00010000
01000000
00001000

00000100
00000001
01000000
00010000
10000000
00000010
00001000
00100000

00000100
00010000
00000010
10000000
00000001
01000000
00001000
00100000

00000100
00010000
00000010
10000000
00100000
00001000
01000000
00000001

00000100
00010000
01000000
00000001
00001000
00000010
10000000
00100000

00000100
00010000
10000000
00001000
00000001
01000000
00000010
00100000

00000100
00100000
00000010
00010000
10000000
00000001
01000000
00001000

00000100
00100000
00000010
01000000
00000001
00001000
10000000
00010000

00000100
00100000
00000010
01000000
00010000
00000001
10000000
00001000

00000100
00100000
00001000
00000001
10000000
00010000
01000000
00000010

00000100
00100000
00001000
00000010
10000000
00010000
01000000
00000001

00000100
00100000
10000000
00000001
00001000
01000000
00010000
00000010

00000100
00100000
10000000
00000001
00010000
01000000
00000010
00001000

00000100
00100000
10000000
00000010
00001000
00000001
01000000
00010000

00000100
01000000
00000010
10000000
00010000
00000001
00001000
00100000

00000100
01000000
00000010
10000000
00100000
00001000
00000001
00010000

00000100
10000000
00001000
01000000
00000001
00100000
00000010
00010000

00001000
00000001
00010000
10000000
00000010
01000000
00000100
00100000

00001000
00000001
00010000
10000000
00100000
00000100
01000000
00000010

00001000
00000010
00010000
10000000
00100000
00000001
00000100
01000000

00001000
00000010
01000000
00000100
00100000
10000000
00000001
00010000

00001000
00000010
01000000
00000100
00100000
10000000
00010000
00000001

00001000
00000010
01000000
00010000
00000001
10000000
00100000
00000100

00001000
00000010
10000000
00010000
01000000
00000001
00000100
00100000

00001000
00000010
10000000
00100000
00000001
00000100
00010000
01000000

00001000
00100000
00000001
00010000
00000010
10000000
00000100
01000000

00001000
00100000
10000000
00000010
01000000
00000001
00000100
00010000

00001000
00100000
10000000
00000100
00000001
01000000
00010000
00000010

00001000
01000000
00000001
10000000
00010000
00000010
00100000
00000100

00001000
01000000
00000100
10000000
00000010
00010000
00000001
00100000

00001000
01000000
00010000
00000010
00100000
00000001
00000100
10000000

00001000
01000000
00010000
00000100
00000001
00100000
10000000
00000010

00001000
10000000
00000001
00000100
00100000
00000010
01000000
00010000

00001000
10000000
00000001
00010000
01000000
00000010
00100000
00000100

00001000
10000000
00010000
00000100
00000001
01000000
00000010
00100000

00010000
00000001
00001000
00100000
10000000
00000010
01000000
00000100

00010000
00000001
10000000
00001000
00000010
01000000
00000100
00100000

00010000
00000001
10000000
00100000
00000100
01000000
00000010
00001000

00010000
00000010
00001000
00100000
10000000
00000100
00000001
01000000

00010000
00000010
00001000
01000000
00000100
10000000
00100000
00000001

00010000
00000010
00100000
00000001
01000000
00001000
10000000
00000100

00010000
00000010
10000000
00000001
00001000
01000000
00000100
00100000

00010000
00000100
00000001
00100000
10000000
00000010
00001000
01000000

00010000
00000100
00000001
01000000
00000010
10000000
00100000
00001000

00010000
00000100
10000000
00001000
01000000
00000001
00100000
00000010

00010000
01000000
00000001
00000100
10000000
00100000
00001000
00000010

00010000
01000000
00000001
00001000
00000010
10000000
00100000
00000100

00010000
01000000
00000010
00001000
10000000
00000001
00000100
00100000

00010000
01000000
00000010
00100000
00000100
00000001
00001000
10000000

00010000
01000000
00000010
00100000
00000100
00000001
10000000
00001000

00010000
01000000
00001000
00000001
00000100
10000000
00100000
00000010

00010000
10000000
00001000
00000001
00000100
00100000
00000010
01000000

00010000
10000000
00001000
00000001
01000000
00000010
00100000
00000100

00100000
00000001
00010000
00000010
10000000
00000100
01000000
00001000

00100000
00000010
01000000
00000001
00000100
00010000
10000000
00001000

00100000
00000010
01000000
00000001
00001000
10000000
00010000
00000100

00100000
00000100
00000001
01000000
00010000
10000000
00000010
00001000

00100000
00000100
00000001
10000000
00001000
00000010
01000000
00010000

00100000
00000100
00000001
10000000
00010000
00000010
00001000
01000000

00100000
00000100
00010000
01000000
00000001
00001000
00000010
10000000

00100000
00000100
00010000
10000000
00000001
00001000
00000010
01000000

00100000
00000100
01000000
00000010
00001000
10000000
00000001
00010000

00100000
00000100
01000000
00000010
10000000
00010000
00000001
00001000

00100000
00000100
01000000
00001000
00000001
10000000
00000010
00010000

00100000
00001000
00000001
00010000
10000000
00000010
01000000
00000100

00100000
00001000
00000010
10000000
00010000
01000000
00000001
00000100

00100000
00001000
01000000
00000001
00000100
00010000
00000010
10000000

00100000
00001000
01000000
00000001
10000000
00000010
00010000
00000100

00100000
10000000
00000010
00001000
00000001
01000000
00010000
00000100

01000000
00000001
00000100
10000000
00100000
00001000
00000010
00010000

01000000
00000010
00001000
00000001
10000000
00010000
00000100
00100000

01000000
00000010
00100000
00000100
00000001
00001000
10000000
00010000

01000000
00000100
00000001
00100000
10000000
00010000
00000010
00001000

01000000
00000100
10000000
00000010
00010000
00000001
00100000
00001000

01000000
00001000
00000010
00010000
10000000
00000001
00000100
00100000

01000000
00001000
00000010
10000000
00100000
00000001
00000100
00010000

01000000
00010000
00000100
00000001
00100000
10000000
00000010
00001000

10000000
00000010
00001000
00000001
01000000
00010000
00000100
00100000

10000000
00000010
00010000
00000100
00000001
01000000
00001000
00100000

10000000
00000100
00000001
00100000
00000010
00010000
01000000
00001000

10000000
00001000
00000001
00000100
00100000
00000010
01000000
00010000

